Dashboard for NY NOAA data
…
  ny_noaa %>% 
  slice_sample(n=4000) %>% 
  janitor::clean_names() %>% 
  separate(date,into = c("year","month","day")) %>%
  mutate(year=as.integer(year),
         month=month.name[as.numeric(month)],
         day=as.numeric(day),
         prcp=as.numeric(prcp)/10,
         tmax=as.numeric(tmax)/10,
         tmin=as.numeric(tmin)/10) %>% 
  filter(year==2007) %>% 
  select(-id,-snwd)
ny_noaa

## # A tibble: 165 × 7
##     year month      day  prcp  snow  tmax  tmin
##    <int> <chr>    <dbl> <dbl> <int> <dbl> <dbl>
##  1  2007 November    25   0       0  10.6  -4.4
##  2  2007 November    17  NA      NA  NA    NA  
##  3  2007 November     8   0       0   4.4  -2.8
##  4  2007 March       19   0       0  -0.6  -8.3
##  5  2007 January     11   0       0   4.4  -8.3
##  6  2007 June        24   0       0  26.1  11.1
##  7  2007 January     30  NA      NA   1.7  -5.6
##  8  2007 June        13   1.5     0  26.7  13.3
##  9  2007 May         14   0       0  13.3   1.7
## 10  2007 February    13   0      NA  NA    NA  
## # … with 155 more rows
…
